{
  "tracks": {
    "href": "https://api.spotify.com/v1/search?query=Nobody+but+You&type=track&market=NL&locale=en-US%2Cen%3Bq%3D0.5&offset=0&limit=4",
    "limit": 4,
    "next": "https://api.spotify.com/v1/search?query=Nobody+but+You&type=track&market=NL&locale=en-US%2Cen%3Bq%3D0.5&offset=4&limit=4",
    "offset": 0,
    "previous": null,
    "total": 801,
    "items": [
      {
        "album": {
          "album_type": "single",
          "total_tracks": 1,
          "external_urls": {
            "spotify": "https://open.spotify.com/album/0HaY1bBhaYUEXBOSva6Pf7"
          },
          "href": "https://api.spotify.com/v1/albums/0HaY1bBhaYUEXBOSva6Pf7",
          "id": "0HaY1bBhaYUEXBOSva6Pf7",
          "images": [
            {
              "url": "https://i.scdn.co/image/ab67616d0000b2734ea1dc12584cb9ec10d2b058",
              "height": 640,
              "width": 640
            },
            {
              "url": "https://i.scdn.co/image/ab67616d00001e024ea1dc12584cb9ec10d2b058",
              "height": 300,
              "width": 300
            },
            {
              "url": "https://i.scdn.co/image/ab67616d000048514ea1dc12584cb9ec10d2b058",
              "height": 64,
              "width": 64
            }
          ],
          "name": "Nobody But You",
          "release_date": "2021-04-09",
          "release_date_precision": "day",
          "type": "album",
          "uri": "spotify:album:0HaY1bBhaYUEXBOSva6Pf7",
          "artists": [
            {
              "external_urls": {
                "spotify": "https://open.spotify.com/artist/2ICR2m4hOBPhaYiZB3rnLW"
              },
              "href": "https://api.spotify.com/v1/artists/2ICR2m4hOBPhaYiZB3rnLW",
              "id": "2ICR2m4hOBPhaYiZB3rnLW",
              "name": "Sonder",
              "type": "artist",
              "uri": "spotify:artist:2ICR2m4hOBPhaYiZB3rnLW"
            },
            {
              "external_urls": {
                "spotify": "https://open.spotify.com/artist/1CoZyIx7UvdxT5c8UkMzHd"
              },
              "href": "https://api.spotify.com/v1/artists/1CoZyIx7UvdxT5c8UkMzHd",
              "id": "1CoZyIx7UvdxT5c8UkMzHd",
              "name": "Jorja Smith",
              "type": "artist",
              "uri": "spotify:artist:1CoZyIx7UvdxT5c8UkMzHd"
            }
          ],
          "is_playable": true
        },
        "artists": [
          {
            "external_urls": {
              "spotify": "https://open.spotify.com/artist/2ICR2m4hOBPhaYiZB3rnLW"
            },
            "href": "https://api.spotify.com/v1/artists/2ICR2m4hOBPhaYiZB3rnLW",
            "id": "2ICR2m4hOBPhaYiZB3rnLW",
            "name": "Sonder",
            "type": "artist",
            "uri": "spotify:artist:2ICR2m4hOBPhaYiZB3rnLW"
          },
          {
            "external_urls": {
              "spotify": "https://open.spotify.com/artist/1CoZyIx7UvdxT5c8UkMzHd"
            },
            "href": "https://api.spotify.com/v1/artists/1CoZyIx7UvdxT5c8UkMzHd",
            "id": "1CoZyIx7UvdxT5c8UkMzHd",
            "name": "Jorja Smith",
            "type": "artist",
            "uri": "spotify:artist:1CoZyIx7UvdxT5c8UkMzHd"
          }
        ],
        "disc_number": 1,
        "duration_ms": 213214,
        "explicit": true,
        "external_ids": {
          "isrc": "QZLBC2100043"
        },
        "external_urls": {
          "spotify": "https://open.spotify.com/track/6VFKuuqSbA1GpMEosUgTwQ"
        },
        "href": "https://api.spotify.com/v1/tracks/6VFKuuqSbA1GpMEosUgTwQ",
        "id": "6VFKuuqSbA1GpMEosUgTwQ",
        "is_playable": true,
        "name": "Nobody But You",
        "popularity": 72,
        "preview_url": "https://p.scdn.co/mp3-preview/64b2f592edfdd9c5543efd15015d7752489a2b8d?cid=0b297fa8a249464ba34f5861d4140e58",
        "track_number": 1,
        "type": "track",
        "uri": "spotify:track:6VFKuuqSbA1GpMEosUgTwQ",
        "is_local": false
      },
      {
        "album": {
          "album_type": "single",
          "total_tracks": 1,
          "external_urls": {
            "spotify": "https://open.spotify.com/album/3nqrKNmzafPVwCJZVSoaBn"
          },
          "href": "https://api.spotify.com/v1/albums/3nqrKNmzafPVwCJZVSoaBn",
          "id": "3nqrKNmzafPVwCJZVSoaBn",
          "images": [
            {
              "url": "https://i.scdn.co/image/ab67616d0000b2737851c82095e7fe8a1485822e",
              "height": 640,
              "width": 640
            },
            {
              "url": "https://i.scdn.co/image/ab67616d00001e027851c82095e7fe8a1485822e",
              "height": 300,
              "width": 300
            },
            {
              "url": "https://i.scdn.co/image/ab67616d000048517851c82095e7fe8a1485822e",
              "height": 64,
              "width": 64
            }
          ],
          "name": "Nobody but You",
          "release_date": "2021-07-09",
          "release_date_precision": "day",
          "type": "album",
          "uri": "spotify:album:3nqrKNmzafPVwCJZVSoaBn",
          "artists": [
            {
              "external_urls": {
                "spotify": "https://open.spotify.com/artist/6ar3PBCFiFgb4aBlFqUZyx"
              },
              "href": "https://api.spotify.com/v1/artists/6ar3PBCFiFgb4aBlFqUZyx",
              "id": "6ar3PBCFiFgb4aBlFqUZyx",
              "name": "Fini",
              "type": "artist",
              "uri": "spotify:artist:6ar3PBCFiFgb4aBlFqUZyx"
            },
            {
              "external_urls": {
                "spotify": "https://open.spotify.com/artist/0VriSmdM742qv8puEPlQXa"
              },
              "href": "https://api.spotify.com/v1/artists/0VriSmdM742qv8puEPlQXa",
              "id": "0VriSmdM742qv8puEPlQXa",
              "name": "Ozimede",
              "type": "artist",
              "uri": "spotify:artist:0VriSmdM742qv8puEPlQXa"
            },
            {
              "external_urls": {
                "spotify": "https://open.spotify.com/artist/4YKwnlxfqc8DviCMrvLIGl"
              },
              "href": "https://api.spotify.com/v1/artists/4YKwnlxfqc8DviCMrvLIGl",
              "id": "4YKwnlxfqc8DviCMrvLIGl",
              "name": "Pablo Fracassi",
              "type": "artist",
              "uri": "spotify:artist:4YKwnlxfqc8DviCMrvLIGl"
            }
          ],
          "is_playable": true
        },
        "artists": [
          {
            "external_urls": {
              "spotify": "https://open.spotify.com/artist/6ar3PBCFiFgb4aBlFqUZyx"
            },
            "href": "https://api.spotify.com/v1/artists/6ar3PBCFiFgb4aBlFqUZyx",
            "id": "6ar3PBCFiFgb4aBlFqUZyx",
            "name": "Fini",
            "type": "artist",
            "uri": "spotify:artist:6ar3PBCFiFgb4aBlFqUZyx"
          },
          {
            "external_urls": {
              "spotify": "https://open.spotify.com/artist/0VriSmdM742qv8puEPlQXa"
            },
            "href": "https://api.spotify.com/v1/artists/0VriSmdM742qv8puEPlQXa",
            "id": "0VriSmdM742qv8puEPlQXa",
            "name": "Ozimede",
            "type": "artist",
            "uri": "spotify:artist:0VriSmdM742qv8puEPlQXa"
          },
          {
            "external_urls": {
              "spotify": "https://open.spotify.com/artist/4YKwnlxfqc8DviCMrvLIGl"
            },
            "href": "https://api.spotify.com/v1/artists/4YKwnlxfqc8DviCMrvLIGl",
            "id": "4YKwnlxfqc8DviCMrvLIGl",
            "name": "Pablo Fracassi",
            "type": "artist",
            "uri": "spotify:artist:4YKwnlxfqc8DviCMrvLIGl"
          }
        ],
        "disc_number": 1,
        "duration_ms": 137200,
        "explicit": false,
        "external_ids": {
          "isrc": "FRX202166493"
        },
        "external_urls": {
          "spotify": "https://open.spotify.com/track/0U6Bs37UdKSNEAPW8z2s7m"
        },
        "href": "https://api.spotify.com/v1/tracks/0U6Bs37UdKSNEAPW8z2s7m",
        "id": "0U6Bs37UdKSNEAPW8z2s7m",
        "is_playable": true,
        "name": "Nobody but You",
        "popularity": 48,
        "preview_url": "https://p.scdn.co/mp3-preview/096cab30e7700d44aa9b611ea345de1f21110f28?cid=0b297fa8a249464ba34f5861d4140e58",
        "track_number": 1,
        "type": "track",
        "uri": "spotify:track:0U6Bs37UdKSNEAPW8z2s7m",
        "is_local": false
      },
      {
        "album": {
          "album_type": "single",
          "total_tracks": 1,
          "external_urls": {
            "spotify": "https://open.spotify.com/album/0YvX4ncmQqaDITHwmpWFh4"
          },
          "href": "https://api.spotify.com/v1/albums/0YvX4ncmQqaDITHwmpWFh4",
          "id": "0YvX4ncmQqaDITHwmpWFh4",
          "images": [
            {
              "url": "https://i.scdn.co/image/ab67616d0000b273dd1943cafb556ba551502878",
              "height": 640,
              "width": 640
            },
            {
              "url": "https://i.scdn.co/image/ab67616d00001e02dd1943cafb556ba551502878",
              "height": 300,
              "width": 300
            },
            {
              "url": "https://i.scdn.co/image/ab67616d00004851dd1943cafb556ba551502878",
              "height": 64,
              "width": 64
            }
          ],
          "name": "Nobody But You",
          "release_date": "2018-05-04",
          "release_date_precision": "day",
          "type": "album",
          "uri": "spotify:album:0YvX4ncmQqaDITHwmpWFh4",
          "artists": [
            {
              "external_urls": {
                "spotify": "https://open.spotify.com/artist/3U4YeD9p381pXkebifD865"
              },
              "href": "https://api.spotify.com/v1/artists/3U4YeD9p381pXkebifD865",
              "id": "3U4YeD9p381pXkebifD865",
              "name": "Cesar Sampson",
              "type": "artist",
              "uri": "spotify:artist:3U4YeD9p381pXkebifD865"
            }
          ],
          "is_playable": true
        },
        "artists": [
          {
            "external_urls": {
              "spotify": "https://open.spotify.com/artist/3U4YeD9p381pXkebifD865"
            },
            "href": "https://api.spotify.com/v1/artists/3U4YeD9p381pXkebifD865",
            "id": "3U4YeD9p381pXkebifD865",
            "name": "Cesar Sampson",
            "type": "artist",
            "uri": "spotify:artist:3U4YeD9p381pXkebifD865"
          }
        ],
        "disc_number": 1,
        "duration_ms": 183511,
        "explicit": false,
        "external_ids": {
          "isrc": "ATUM71800076"
        },
        "external_urls": {
          "spotify": "https://open.spotify.com/track/41gxXNTTz6LNVY2LIKoRHn"
        },
        "href": "https://api.spotify.com/v1/tracks/41gxXNTTz6LNVY2LIKoRHn",
        "id": "41gxXNTTz6LNVY2LIKoRHn",
        "is_playable": true,
        "name": "Nobody But You",
        "popularity": 47,
        "preview_url": null,
        "track_number": 1,
        "type": "track",
        "uri": "spotify:track:41gxXNTTz6LNVY2LIKoRHn",
        "is_local": false
      },
      {
        "album": {
          "album_type": "compilation",
          "total_tracks": 40,
          "external_urls": {
            "spotify": "https://open.spotify.com/album/1nLsSVA6nV9YYzgdqDVGyH"
          },
          "href": "https://api.spotify.com/v1/albums/1nLsSVA6nV9YYzgdqDVGyH",
          "id": "1nLsSVA6nV9YYzgdqDVGyH",
          "images": [
            {
              "url": "https://i.scdn.co/image/ab67616d0000b273eead361d58b225bd049a0054",
              "height": 640,
              "width": 640
            },
            {
              "url": "https://i.scdn.co/image/ab67616d00001e02eead361d58b225bd049a0054",
              "height": 300,
              "width": 300
            },
            {
              "url": "https://i.scdn.co/image/ab67616d00004851eead361d58b225bd049a0054",
              "height": 64,
              "width": 64
            }
          ],
          "name": "Romantic 10s",
          "release_date": "2023-06-16",
          "release_date_precision": "day",
          "type": "album",
          "uri": "spotify:album:1nLsSVA6nV9YYzgdqDVGyH",
          "artists": [
            {
              "external_urls": {
                "spotify": "https://open.spotify.com/artist/0LyfQWJT6nXafLPZqxe9Of"
              },
              "href": "https://api.spotify.com/v1/artists/0LyfQWJT6nXafLPZqxe9Of",
              "id": "0LyfQWJT6nXafLPZqxe9Of",
              "name": "Various Artists",
              "type": "artist",
              "uri": "spotify:artist:0LyfQWJT6nXafLPZqxe9Of"
            }
          ],
          "is_playable": true
        },
        "artists": [
          {
            "external_urls": {
              "spotify": "https://open.spotify.com/artist/1UTPBmNbXNTittyMJrNkvw"
            },
            "href": "https://api.spotify.com/v1/artists/1UTPBmNbXNTittyMJrNkvw",
            "id": "1UTPBmNbXNTittyMJrNkvw",
            "name": "Blake Shelton",
            "type": "artist",
            "uri": "spotify:artist:1UTPBmNbXNTittyMJrNkvw"
          },
          {
            "external_urls": {
              "spotify": "https://open.spotify.com/artist/4yiQZ8tQPux8cPriYMWUFP"
            },
            "href": "https://api.spotify.com/v1/artists/4yiQZ8tQPux8cPriYMWUFP",
            "id": "4yiQZ8tQPux8cPriYMWUFP",
            "name": "Gwen Stefani",
            "type": "artist",
            "uri": "spotify:artist:4yiQZ8tQPux8cPriYMWUFP"
          }
        ],
        "disc_number": 1,
        "duration_ms": 194866,
        "explicit": false,
        "external_ids": {
          "isrc": "USWB11902679"
        },
        "external_urls": {
          "spotify": "https://open.spotify.com/track/35GtT2hSubRwRRYn5H5mEj"
        },
        "href": "https://api.spotify.com/v1/tracks/35GtT2hSubRwRRYn5H5mEj",
        "id": "35GtT2hSubRwRRYn5H5mEj",
        "is_playable": true,
        "name": "Nobody but You",
        "popularity": 0,
        "preview_url": "https://p.scdn.co/mp3-preview/4e5ef31d2397f24456a57877d5d9fadd8d4b697c?cid=0b297fa8a249464ba34f5861d4140e58",
        "track_number": 38,
        "type": "track",
        "uri": "spotify:track:35GtT2hSubRwRRYn5H5mEj",
        "is_local": false
      }
    ]
  }
}